ActsPixelSeedingAlg                                  INFO Seed statistics
|---------------------|------------|
| Spacepoints         |    1165578 |
| Seeds               |     123544 |
| No track parameters |          0 |
|---------------------|------------|
ActsStripSeedingAlg                                  INFO Seed statistics
|---------------------|------------|
| Spacepoints         |     419947 |
| Seeds               |      24791 |
| No track parameters |          0 |
|---------------------|------------|
ActsTrackFindingAlg                                  INFO statistics
|-----------------------------------|------------|------------|------------|
|                           All eta | PPP        | SSS        | ALL        |
|-----------------------------------|------------|------------|------------|
| Input seeds                       |     123544 |      24791 |     148335 |
| No track parameters               |          0 |          0 |          0 |
| Used   seeds                      |      77358 |      14900 |      92258 |
| Cannot find track                 |       7695 |         28 |       7723 |
| Duplicate seeds                   |      46186 |       9891 |      56077 |
| CKF tracks                        |      69277 |      12342 |      81619 |
| Rejected refined parameters       |        386 |       2530 |       2916 |
| selected tracks                   |      20249 |        362 |      20611 |
| Stopped tracks reaching max holes |       7695 |         28 |       7723 |
|-----------------------------------|------------|------------|------------|
ActsTrackFindingAlg                                  INFO Ratios
|------------------------------------------|------------|------------|------------|
|                                          | PPP        | SSS        | ALL        |
|------------------------------------------|------------|------------|------------|
| failed / seeds                           |  0.0622855 | 0.00112944 |  0.0520646 |
| duplication / seeds                      |   0.373843 |   0.398975 |   0.378043 |
| Rejected refined params / seeds          | 0.00312439 |   0.102053 |  0.0196582 |
| selected / CKF tracks                    |    0.29229 |  0.0293307 |   0.252527 |
| selected tracks / used seeds             |   0.261757 |  0.0242953 |   0.223406 |
|------------------------------------------|------------|------------|------------|
| selected / CKF tracks           0.0- 0.5 |   0.242062 | 0.00432588 |   0.184546 |
|                                 0.5- 1.0 |     0.1868 | 0.00743243 |   0.154335 |
|                                 1.0- 1.5 |   0.100365 | 0.00855432 |  0.0931422 |
|                                 1.5- 2.0 |   0.130913 |  0.0320616 |   0.105445 |
|                                 2.0- 2.5 |   0.312935 |  0.0573108 |   0.260791 |
|                                 2.5- 3.0 |   0.482462 |          0 |   0.482404 |
|                                 3.0- 3.5 |   0.622929 |          0 |   0.622929 |
|                                 3.5-+inf |   0.899444 |          0 |   0.899444 |
|------------------------------------------|------------|------------|------------|
ActsConversionStripSeedingAlg                        INFO Seed statistics
|---------------------|------------|
| Spacepoints         |       6773 |
| Seeds               |        371 |
| No track parameters |          0 |
|---------------------|------------|
ActsConversionTrackFindingAlg                        INFO statistics
|-----------------------------------|------------|------------|
|                           All eta | SSS        | ALL        |
|-----------------------------------|------------|------------|
| Input seeds                       |        371 |        371 |
| No track parameters               |          0 |          0 |
| Used   seeds                      |        306 |        306 |
| Cannot find track                 |         57 |         57 |
| Duplicate seeds                   |         65 |         65 |
| CKF tracks                        |        214 |        214 |
| Rejected refined parameters       |         35 |         35 |
| selected tracks                   |         48 |         48 |
| Stopped tracks reaching max holes |         57 |         57 |
|-----------------------------------|------------|------------|
ActsConversionTrackFindingAlg                        INFO Ratios
|------------------------------------------|------------|------------|
|                                          | SSS        | ALL        |
|------------------------------------------|------------|------------|
| failed / seeds                           |   0.153639 |   0.153639 |
| duplication / seeds                      |   0.175202 |   0.175202 |
| Rejected refined params / seeds          |  0.0943396 |  0.0943396 |
| selected / CKF tracks                    |   0.224299 |   0.224299 |
| selected tracks / used seeds             |   0.156863 |   0.156863 |
|------------------------------------------|------------|------------|
| selected / CKF tracks           0.0- 0.5 |       0.08 |       0.08 |
|                                 0.5- 1.0 |  0.0816327 |  0.0816327 |
|                                 1.0- 1.5 |  0.0588235 |  0.0588235 |
|                                 1.5- 2.0 |   0.264706 |   0.264706 |
|                                 2.0- 2.5 |    0.46875 |    0.46875 |
|                                 2.5- 3.0 |          0 |          0 |
|                                 3.0- 3.5 |          0 |          0 |
|                                 3.5-+inf |          0 |          0 |
|------------------------------------------|------------|------------|
